…
The data ends up looking like this:

``` r
rawdata <- readRDS("../RawData/rawdata.rds") 

rawdata
```

    ## # A tibble: 13,680 × 10
    ##    ID        PET               Group   Treatment Region  t_tac   dur    TAC kfweights  RefCBL
    ##    <chr>     <chr>             <chr>   <chr>     <chr>   <dbl> <dbl>  <dbl>     <dbl>   <dbl>
    ##  1 Control_1 Control_1_Control Control Control   FC     0.0833 0.167  0.569     0.500 -0.252 
    ##  2 Control_1 Control_1_Control Control Control   FC     0.25   0.167  0.324     0.507 -0.0443
    ##  3 Control_1 Control_1_Control Control Control   FC     0.417  0.167  8.52      0.599  9.81  
    ##  4 Control_1 Control_1_Control Control Control   FC     0.583  0.167  9.64      0.604  9.56  
    ##  5 Control_1 Control_1_Control Control Control   FC     0.75   0.167 10.9       0.603 10.7   
    ##  6 Control_1 Control_1_Control Control Control   FC     0.917  0.167 10.4       0.606 10.5   
    ##  7 Control_1 Control_1_Control Control Control   FC     1.08   0.167 10.4       0.608 10.2   
    ##  8 Control_1 Control_1_Control Control Control   FC     1.25   0.167 11.0       0.605 10.1   
    ##  9 Control_1 Control_1_Control Control Control   FC     1.42   0.167 10.6       0.609 10.4   
    ## 10 Control_1 Control_1_Control Control Control   FC     1.62   0.25  10.2       0.630  9.75  
    ## # ℹ 13,670 more rows
…
I’ve also included some true values for getting some insight into the
simulations

``` r
truedata <- readRDS("../RawData/truedata.rds")

truedata
```

    ## # A tibble: 13,680 × 21
    ##    ID        PET      Group Treatment Region  t_tac logR1_true logBPnd_true logk2prime_true sigma_true t0_true A_true B_true C_true alpha_true beta_true gamma_true Ph1_true
    ##    <chr>     <chr>    <chr> <chr>     <chr>   <dbl>      <dbl>        <dbl>           <dbl>      <dbl>   <dbl>  <dbl>  <dbl>  <dbl>      <dbl>     <dbl>      <dbl>    <dbl>
    ##  1 Control_1 Control… Cont… Control   FC     0.0833    -0.0678        0.480           -2.09      -1.59   0.232  6302.   432.  -432.       18.7     0.162      0.161    0.573
    ##  2 Control_1 Control… Cont… Control   FC     0.25      -0.0678        0.480           -2.09      -1.59   0.232  6302.   432.  -432.       18.7     0.162      0.161    0.573
    ##  3 Control_1 Control… Cont… Control   FC     0.417     -0.0678        0.480           -2.09      -1.59   0.232  6302.   432.  -432.       18.7     0.162      0.161    0.573
    ##  4 Control_1 Control… Cont… Control   FC     0.583     -0.0678        0.480           -2.09      -1.59   0.232  6302.   432.  -432.       18.7     0.162      0.161    0.573
    ##  5 Control_1 Control… Cont… Control   FC     0.75      -0.0678        0.480           -2.09      -1.59   0.232  6302.   432.  -432.       18.7     0.162      0.161    0.573
    ##  6 Control_1 Control… Cont… Control   FC     0.917     -0.0678        0.480           -2.09      -1.59   0.232  6302.   432.  -432.       18.7     0.162      0.161    0.573
    ##  7 Control_1 Control… Cont… Control   FC     1.08      -0.0678        0.480           -2.09      -1.59   0.232  6302.   432.  -432.       18.7     0.162      0.161    0.573
    ##  8 Control_1 Control… Cont… Control   FC     1.25      -0.0678        0.480           -2.09      -1.59   0.232  6302.   432.  -432.       18.7     0.162      0.161    0.573
    ##  9 Control_1 Control… Cont… Control   FC     1.42      -0.0678        0.480           -2.09      -1.59   0.232  6302.   432.  -432.       18.7     0.162      0.161    0.573
    ## 10 Control_1 Control… Cont… Control   FC     1.62      -0.0678        0.480           -2.09      -1.59   0.232  6302.   432.  -432.       18.7     0.162      0.161    0.573
    ## # ℹ 13,670 more rows
    ## # ℹ 3 more variables: Th1_true <dbl>, sigma_w_true <dbl>, TAC_true <dbl>
…
``` r
rawdata_nested <- rawdata %>% 
  group_by(ID, PET, Group, Treatment, Region) %>% 
  nest(.key="tacs")
```

The data then looks like this

``` r
rawdata_nested
```

    ## # A tibble: 360 × 6
    ## # Groups:   ID, PET, Group, Treatment, Region [360]
    ##    ID        PET               Group   Treatment Region tacs             
    ##    <chr>     <chr>             <chr>   <chr>     <chr>  <list>           
    ##  1 Control_1 Control_1_Control Control Control   FC     <tibble [38 × 5]>
    ##  2 Control_1 Control_1_Control Control Control   ACC    <tibble [38 × 5]>
    ##  3 Control_1 Control_1_Control Control Control   AMG    <tibble [38 × 5]>
    ##  4 Control_1 Control_1_Control Control Control   DBS    <tibble [38 × 5]>
    ##  5 Control_1 Control_1_Control Control Control   HIP    <tibble [38 × 5]>
    ##  6 Control_1 Control_1_Control Control Control   INS    <tibble [38 × 5]>
    ##  7 Control_1 Control_1_Control Control Control   OC     <tibble [38 × 5]>
    ##  8 Control_1 Control_1_Control Control Control   THA    <tibble [38 × 5]>
    ##  9 Control_1 Control_1_Control Control Control   VSTR   <tibble [38 × 5]>
    ## 10 Control_1 Control_1_Placebo Control Placebo   FC     <tibble [38 × 5]>
    ## # ℹ 350 more rows

… and then the nested table called “tacs” for each measurement and
region looks like this:

``` r
rawdata_nested$tacs[[1]]
```

    ## # A tibble: 38 × 5
    ##     t_tac   dur    TAC kfweights  RefCBL
    ##     <dbl> <dbl>  <dbl>     <dbl>   <dbl>
    ##  1 0.0833 0.167  0.569     0.500 -0.252 
    ##  2 0.25   0.167  0.324     0.507 -0.0443
    ##  3 0.417  0.167  8.52      0.599  9.81  
    ##  4 0.583  0.167  9.64      0.604  9.56  
    ##  5 0.75   0.167 10.9       0.603 10.7   
    ##  6 0.917  0.167 10.4       0.606 10.5   
    ##  7 1.08   0.167 10.4       0.608 10.2   
    ##  8 1.25   0.167 11.0       0.605 10.1   
    ##  9 1.42   0.167 10.6       0.609 10.4   
    ## 10 1.62   0.25  10.2       0.630  9.75  
    ## # ℹ 28 more rows
…
``` r
reftacs_nested <- rawdata_nested %>% 
  filter(Region=="FC") %>% 
  ungroup() %>% 
  select(-Region)

reftacs_nested
```

    ## # A tibble: 40 × 5
    ##    ID        PET               Group   Treatment tacs             
    ##    <chr>     <chr>             <chr>   <chr>     <list>           
    ##  1 Control_1 Control_1_Control Control Control   <tibble [38 × 5]>
    ##  2 Control_1 Control_1_Placebo Control Placebo   <tibble [38 × 5]>
    ##  3 Control_2 Control_2_Control Control Control   <tibble [38 × 5]>
    ##  4 Control_2 Control_2_Placebo Control Placebo   <tibble [38 × 5]>
    ##  5 Control_3 Control_3_Control Control Control   <tibble [38 × 5]>
    ##  6 Control_3 Control_3_Placebo Control Placebo   <tibble [38 × 5]>
    ##  7 Control_4 Control_4_Control Control Control   <tibble [38 × 5]>
    ##  8 Control_4 Control_4_Placebo Control Placebo   <tibble [38 × 5]>
    ##  9 Control_5 Control_5_Control Control Control   <tibble [38 × 5]>
    ## 10 Control_5 Control_5_Placebo Control Placebo   <tibble [38 × 5]>
    ## # ℹ 30 more rows
…
Then we can extract the estimated parameter values

``` r
refpar <- reftacs_nested %>% 
  mutate(par = map(reffit, "par")) %>% 
  select(ID:Treatment, par) %>% 
  unnest(par)

refpar
```

    ## # A tibble: 40 × 13
    ##    ID        PET               Group   Treatment     t0         A       B          C  alpha    beta     gamma   Ph1     Th1
    ##    <chr>     <chr>             <chr>   <chr>      <dbl>     <dbl>   <dbl>      <dbl>  <dbl>   <dbl>     <dbl> <dbl>   <dbl>
    ##  1 Control_1 Control_1_Control Control Control   0.250      -1.44  -1881.  1879.      0.172 112.    20.9      0.138 0.00744
    ##  2 Control_1 Control_1_Placebo Control Placebo   0.250      -1.54   2711. -2714.      0.173  23.1   67.9      0.130 0.00745
    ##  3 Control_2 Control_2_Control Control Control   0.143    2374.      315.  -315.     12.2     0.169  0.168    0.647 0.00535
    ##  4 Control_2 Control_2_Placebo Control Placebo   0.143   13604.     1386. -1389.     12.1     0.169  0.168    0.113 0.00537
    ##  5 Control_3 Control_3_Control Control Control   0.213    8811.   -10982.     0.169   9.84    9.13   0.00316  1.95  0.0899 
    ##  6 Control_3 Control_3_Placebo Control Placebo   0.213   18624.   -24821.     0.339   9.82    9.15   0.00319  0.977 0.0900 
    ##  7 Control_4 Control_4_Control Control Control   0.0148   5185.    -6718.     0.0432  8.93    8.23  -0.000690 1.90  0.0544 
    ##  8 Control_4 Control_4_Placebo Control Placebo   0.0147   3247.    -3279.     0.0338  8.96    8.10  -0.000641 2.44  0.0546 
    ##  9 Control_5 Control_5_Control Control Control   0.0812 121381.    -2482.     0.0501 60.1    33.7    0.00387  7.07  0.0978 
    ## 10 Control_5 Control_5_Placebo Control Placebo   0.0813 194329.    -5173.     0.0655 58.2    35.8    0.00387  5.40  0.0977 
    ## # ℹ 30 more rows
…
So using the analytical convolution, it’s about 3 times faster.

Now, let’s run it for all of the TACs. First we nest the data by each
TAC…

``` r
rawdata_nested <- rawdata_refpar %>% 
  group_by(ID, Group, Treatment, PET, Region) %>% 
  nest()

rawdata_nested
```

    ## # A tibble: 360 × 6
    ## # Groups:   ID, Group, Treatment, PET, Region [360]
    ##    ID        PET               Group   Treatment Region data              
    ##    <chr>     <chr>             <chr>   <chr>     <chr>  <list>            
    ##  1 Control_1 Control_1_Control Control Control   FC     <tibble [38 × 14]>
    ##  2 Control_1 Control_1_Control Control Control   ACC    <tibble [38 × 14]>
    ##  3 Control_1 Control_1_Control Control Control   AMG    <tibble [38 × 14]>
    ##  4 Control_1 Control_1_Control Control Control   DBS    <tibble [38 × 14]>
    ##  5 Control_1 Control_1_Control Control Control   HIP    <tibble [38 × 14]>
    ##  6 Control_1 Control_1_Control Control Control   INS    <tibble [38 × 14]>
    ##  7 Control_1 Control_1_Control Control Control   OC     <tibble [38 × 14]>
    ##  8 Control_1 Control_1_Control Control Control   THA    <tibble [38 × 14]>
    ##  9 Control_1 Control_1_Control Control Control   VSTR   <tibble [38 × 14]>
    ## 10 Control_1 Control_1_Placebo Control Placebo   FC     <tibble [38 × 14]>
    ## # ℹ 350 more rows
…
Now we can compare with the interpolated values

``` r
rawdata_pars %>% 
  inner_join(rawdata_anapars_long) %>% 
  group_by(Region, Parameter) %>% 
  summarise(cor = cor(Value, ana_Values))
```

    ## Joining with `by = join_by(ID, PET, Group, Treatment, Region, Parameter)`
    ## `summarise()` has grouped output by 'Region'. You can override using the `.groups` argument.

    ## # A tibble: 27 × 3
    ## # Groups:   Region [9]
    ##    Region Parameter   cor
    ##    <chr>  <chr>     <dbl>
    ##  1 ACC    R1        0.989
    ##  2 ACC    bp        1.00 
    ##  3 ACC    k2        0.990
    ##  4 AMG    R1        0.993
    ##  5 AMG    bp        1.00 
    ##  6 AMG    k2        0.992
    ##  7 DBS    R1        0.954
    ##  8 DBS    bp        0.994
    ##  9 DBS    k2        0.779
    ## 10 FC     R1        0.987
    ## # ℹ 17 more rows
…
